{
  "components": [
    {
      "type": "processor",
      "name": "Intel Pentium",
      "description": "Some description stuff",
      "brand": "Intel",
      "price": "4999",
      "currency": "CZK",
      "params": {
        "sn": "879843265716054",
        "speed": "5GHz"
      }
    },
    {
      "type": "ssd",
      "name": "Seagate",
      "description": "Some description stuff",
      "brand": "Ironwolf",
      "price": "8000",
      "currency": "CZK",
      "params": {
        "capacity": "8000GB",
        "sn": "1489526870535645"
      }
    },
    {
      "type": "memory",
      "name": "Corsair memory",
      "description": "Some description stuff",
      "brand": "Corsair",
      "price": "8410",
      "currency": "CZK",
      "params": {
        "capacity": "2x16GB",
        "sn": "1489526889755645"
      }
    },
    {
      "type": "graphic card",
      "name": "nVidia",
      "description": "Some description stuff",
      "brand": "nVidia",
      "price": "2500",
      "currency": "CZK",
      "params": {
        "sn": "1489526889755645",
        "model": "xxx"
      }
    }
  ],
  "accessories": [
    {
      "name": "židle",
      "description": "Spinalis",
      "price": "34000",
      "currency": "CZK"
    },
    {
      "name": "monitor",
      "description": "Dell",
      "price": "380",
      "currency": "EUR"
    }
  ]
}